…
To transform from one CRS to another: newData \<- spTransform(x,
CRS(“+init=epsg:4238”)) or, reference the CRS of another spatial
object: newData \<- spTransform(x, proj4string(OtherData))

-----

### make\_EPSG

Lists all the available EPSG (European Petroleum Survey Group) codes for
CRS proj4strings.

``` r
make_EPSG() %>% as_tibble
## # A tibble: 5,513 x 3
##       code note                          prj4                              
##    <I<int> <I<chr>>                      <I<chr>>                          
##  1    3819 # HD1909                      +proj=longlat +ellps=bessel +towg…
##  2    3821 # TWD67                       +proj=longlat +ellps=aust_SA +no_…
##  3    3824 # TWD97                       +proj=longlat +ellps=GRS80 +towgs…
##  4    3889 # IGRS                        +proj=longlat +ellps=GRS80 +towgs…
##  5    3906 # MGI 1901                    +proj=longlat +ellps=bessel +towg…
##  6    4001 # Unknown datum based upon t… +proj=longlat +ellps=airy +no_defs
##  7    4002 # Unknown datum based upon t… +proj=longlat +ellps=mod_airy +no…
##  8    4003 # Unknown datum based upon t… +proj=longlat +ellps=aust_SA +no_…
##  9    4004 # Unknown datum based upon t… +proj=longlat +ellps=bessel +no_d…
## 10    4005 # Unknown datum based upon t… +proj=longlat +a=6377492.018 +b=6…
## # … with 5,503 more rows
```

-----

### projInfo

Lists all the different options for CRS proj4string attributes.

#### proj

``` r
projInfo(type  =  "proj") %>% as_tibble
## # A tibble: 143 x 2
##    name   description                        
##    <fct>  <fct>                              
##  1 aea    Albers Equal Area                  
##  2 aeqd   Azimuthal Equidistant              
##  3 airy   Airy                               
##  4 aitoff Aitoff                             
##  5 alsk   Mod. Stereographic of Alaska       
##  6 apian  Apian Globular I                   
##  7 august August Epicycloidal                
##  8 bacon  Bacon Globular                     
##  9 bipc   Bipolar conic of western hemisphere
## 10 boggs  Boggs Eumorphic                    
## # … with 133 more rows
```
…
#### units

``` r
projInfo(type  =  "units") %>% as_tibble
## # A tibble: 21 x 3
##    id    to_meter name                       
##    <fct> <fct>    <fct>                      
##  1 km    1000.    Kilometer                  
##  2 m     1.       Meter                      
##  3 dm    1/10     Decimeter                  
##  4 cm    1/100    Centimeter                 
##  5 mm    1/1000   Millimeter                 
##  6 kmi   1852.0   International Nautical Mile
##  7 in    0.0254   International Inch         
##  8 ft    0.3048   International Foot         
##  9 yd    0.9144   International Yard         
## 10 mi    1609.344 International Statute Mile 
## # … with 11 more rows
```
